…
## How many characters are current Avengers?

First I made a subset of only current members. Here I can see which
characters are members of the Avengers, whether or not they are full
members or honorary and if they have died at least once.

``` r
current_avengers <- subset(avengers_subset, `Current Member` == "YES")
current_avengers
```

    ## # A tibble: 82 x 9
    ##    `Name/Alias` `Current Member` `Full/Reserve A~ `Honorary Membe~ Death1 Death2
    ##    <chr>        <chr>            <chr>            <chr>            <chr>  <chr> 
    ##  1 "Henry Jona~ YES              Sep-63           Full             YES    <NA>  
    ##  2 "Janet van ~ YES              Sep-63           Full             YES    <NA>  
    ##  3 "Anthony Ed~ YES              Sep-63           Full             YES    <NA>  
    ##  4 "Robert Bru~ YES              Sep-63           Full             YES    <NA>  
    ##  5 "Thor Odins~ YES              Sep-63           Full             YES    YES   
    ##  6 "Richard Mi~ YES              Sep-63           Honorary         NO     <NA>  
    ##  7 "Steven Rog~ YES              Mar-64           Full             YES    <NA>  
    ##  8 "Clinton Fr~ YES              May-65           Full             YES    YES   
    ##  9 "Pietro Max~ YES              May-65           Full             YES    <NA>  
    ## 10 "Wanda Maxi~ YES              May-65           Full             YES    <NA>  
    ## # ... with 72 more rows, and 3 more variables: Death3 <chr>, Death4 <chr>,
    ## #   Death5 <chr>
…
``` r
current_avengers$Death1<-ifelse(!is.na(current_avengers$Death1) & current_avengers$Death1=="YES",1,0)
current_avengers$Death2<-ifelse(!is.na(current_avengers$Death2) & current_avengers$Death2=="YES",1,0)
current_avengers$Death3<-ifelse(!is.na(current_avengers$Death3) & current_avengers$Death3=="YES",1,0)
current_avengers$Death4<-ifelse(!is.na(current_avengers$Death4) & current_avengers$Death4=="YES",1,0)
current_avengers$Death5<-ifelse(!is.na(current_avengers$Death5) & current_avengers$Death5=="YES",1,0)

current_avengers
```

    ## # A tibble: 82 x 9
    ##    `Name/Alias` `Current Member` `Full/Reserve A~ `Honorary Membe~ Death1 Death2
    ##    <chr>        <chr>            <chr>            <chr>             <dbl>  <dbl>
    ##  1 "Henry Jona~ YES              Sep-63           Full                  1      0
    ##  2 "Janet van ~ YES              Sep-63           Full                  1      0
    ##  3 "Anthony Ed~ YES              Sep-63           Full                  1      0
    ##  4 "Robert Bru~ YES              Sep-63           Full                  1      0
    ##  5 "Thor Odins~ YES              Sep-63           Full                  1      1
    ##  6 "Richard Mi~ YES              Sep-63           Honorary              0      0
    ##  7 "Steven Rog~ YES              Mar-64           Full                  1      0
    ##  8 "Clinton Fr~ YES              May-65           Full                  1      1
    ##  9 "Pietro Max~ YES              May-65           Full                  1      0
    ## 10 "Wanda Maxi~ YES              May-65           Full                  1      0
    ## # ... with 72 more rows, and 3 more variables: Death3 <dbl>, Death4 <dbl>,
    ## #   Death5 <dbl>
…
